%YAML 1.1
%TAG !u! tag:unity3d.com,2011:
--- !u!1 &2464014503441468834
GameObject:
  m_ObjectHideFlags: 0
  m_CorrespondingSourceObject: {fileID: 0}
  m_PrefabInstance: {fileID: 0}
  m_PrefabAsset: {fileID: 0}
  serializedVersion: 6
  m_Component:
  - component: {fileID: 4005258311906477103}
  - component: {fileID: 8699866662583890258}
  - component: {fileID: 2287071160789441360}
  - component: {fileID: 7104069198530421850}
  - component: {fileID: 1475477634}
  m_Layer: 0
  m_Name: 2BagueObject
  m_TagString: ObjectInspection
  m_Icon: {fileID: 0}
  m_NavMeshLayer: 0
  m_StaticEditorFlags: 0
  m_IsActive: 1
--- !u!4 &4005258311906477103
Transform:
  m_ObjectHideFlags: 0
  m_CorrespondingSourceObject: {fileID: 0}
  m_PrefabInstance: {fileID: 0}
  m_PrefabAsset: {fileID: 0}
  m_GameObject: {fileID: 2464014503441468834}
  m_LocalRotation: {x: 0, y: 0, z: 0, w: 1}
  m_LocalPosition: {x: 0, y: 0, z: 0}
  m_LocalScale: {x: 1, y: 1, z: 1}
  m_Children:
  - {fileID: 5151479648222472550}
  m_Father: {fileID: 0}
  m_RootOrder: 0
  m_LocalEulerAnglesHint: {x: 0, y: 0, z: 0}
--- !u!65 &8699866662583890258
BoxCollider:
  m_ObjectHideFlags: 0
  m_CorrespondingSourceObject: {fileID: 0}
  m_PrefabInstance: {fileID: 0}
  m_PrefabAsset: {fileID: 0}
  m_GameObject: {fileID: 2464014503441468834}
  m_Material: {fileID: 0}
  m_IsTrigger: 1
  m_Enabled: 1
  serializedVersion: 2
  m_Size: {x: 0.13489097, y: 0.09838545, z: 0.12986618}
  m_Center: {x: -0.012720078, y: 0.00007541664, z: 0.0050219}
--- !u!54 &2287071160789441360
Rigidbody:
  m_ObjectHideFlags: 0
  m_CorrespondingSourceObject: {fileID: 0}
  m_PrefabInstance: {fileID: 0}
  m_PrefabAsset: {fileID: 0}
  m_GameObject: {fileID: 2464014503441468834}
  serializedVersion: 2
  m_Mass: 1
  m_Drag: 0
  m_AngularDrag: 0.05
  m_UseGravity: 0
  m_IsKinematic: 1
  m_Interpolate: 0
  m_Constraints: 0
  m_CollisionDetection: 0
--- !u!114 &7104069198530421850
MonoBehaviour:
  m_ObjectHideFlags: 0
  m_CorrespondingSourceObject: {fileID: 0}
  m_PrefabInstance: {fileID: 0}
  m_PrefabAsset: {fileID: 0}
  m_GameObject: {fileID: 2464014503441468834}
  m_Enabled: 1
  m_EditorHideFlags: 0
  m_Script: {fileID: 11500000, guid: 3dc2bc3f8fa34c94190dba038adb0d2f, type: 3}
  m_Name: 
  m_EditorClassIdentifier: 
  posedSound: "event:/Sound Effect/Sons objets/Pierre/L\xE9g\xE8re - Pos\xE9e"
--- !u!114 &1475477634
MonoBehaviour:
  m_ObjectHideFlags: 0
  m_CorrespondingSourceObject: {fileID: 0}
  m_PrefabInstance: {fileID: 0}
  m_PrefabAsset: {fileID: 0}
  m_GameObject: {fileID: 2464014503441468834}
  m_Enabled: 1
  m_EditorHideFlags: 0
  m_Script: {fileID: 11500000, guid: 847cc285d788b6e4eb10f3bfc4cd0621, type: 3}
  m_Name: 
  m_EditorClassIdentifier: 
  scaleInspection: {x: 4, y: 4, z: 4}
--- !u!1001 &4681212602150882957
PrefabInstance:
  m_ObjectHideFlags: 0
  serializedVersion: 2
  m_Modification:
    m_TransformParent: {fileID: 4005258311906477103}
    m_Modifications:
    - target: {fileID: -8679921383154817045, guid: 2a8f1bbd473ce6b48b07360916b6f649,
        type: 3}
      propertyPath: m_LocalPosition.x
      value: 0
      objectReference: {fileID: 0}
    - target: {fileID: -8679921383154817045, guid: 2a8f1bbd473ce6b48b07360916b6f649,
        type: 3}
      propertyPath: m_LocalPosition.y
      value: -0.0359
      objectReference: {fileID: 0}
    - target: {fileID: -8679921383154817045, guid: 2a8f1bbd473ce6b48b07360916b6f649,
        type: 3}
      propertyPath: m_LocalPosition.z
      value: 0
      objectReference: {fileID: 0}
    - target: {fileID: -8679921383154817045, guid: 2a8f1bbd473ce6b48b07360916b6f649,
        type: 3}
      propertyPath: m_LocalRotation.x
      value: 0.49561775
      objectReference: {fileID: 0}
    - target: {fileID: -8679921383154817045, guid: 2a8f1bbd473ce6b48b07360916b6f649,
        type: 3}
      propertyPath: m_LocalRotation.y
      value: 0.49561775
      objectReference: {fileID: 0}
    - target: {fileID: -8679921383154817045, guid: 2a8f1bbd473ce6b48b07360916b6f649,
        type: 3}
      propertyPath: m_LocalRotation.z
      value: 0.5043442
      objectReference: {fileID: 0}
    - target: {fileID: -8679921383154817045, guid: 2a8f1bbd473ce6b48b07360916b6f649,
        type: 3}
      propertyPath: m_LocalRotation.w
      value: 0.5043442
      objectReference: {fileID: 0}
    - target: {fileID: -8679921383154817045, guid: 2a8f1bbd473ce6b48b07360916b6f649,
        type: 3}
      propertyPath: m_RootOrder
      value: 0
      objectReference: {fileID: 0}
    - target: {fileID: -8679921383154817045, guid: 2a8f1bbd473ce6b48b07360916b6f649,
        type: 3}
      propertyPath: m_LocalEulerAnglesHint.x
      value: 180
      objectReference: {fileID: 0}
    - target: {fileID: -8679921383154817045, guid: 2a8f1bbd473ce6b48b07360916b6f649,
        type: 3}
      propertyPath: m_LocalEulerAnglesHint.y
      value: -91
      objectReference: {fileID: 0}
    - target: {fileID: -8679921383154817045, guid: 2a8f1bbd473ce6b48b07360916b6f649,
        type: 3}
      propertyPath: m_LocalEulerAnglesHint.z
      value: -90
      objectReference: {fileID: 0}
    - target: {fileID: -8679921383154817045, guid: 2a8f1bbd473ce6b48b07360916b6f649,
        type: 3}
      propertyPath: m_LocalScale.x
      value: 1
      objectReference: {fileID: 0}
    - target: {fileID: -8679921383154817045, guid: 2a8f1bbd473ce6b48b07360916b6f649,
        type: 3}
      propertyPath: m_LocalScale.y
      value: 1
      objectReference: {fileID: 0}
    - target: {fileID: -8679921383154817045, guid: 2a8f1bbd473ce6b48b07360916b6f649,
        type: 3}
      propertyPath: m_LocalScale.z
      value: 1
      objectReference: {fileID: 0}
    - target: {fileID: -7511558181221131132, guid: 2a8f1bbd473ce6b48b07360916b6f649,
        type: 3}
      propertyPath: m_Materials.Array.data[0]
      value: 
      objectReference: {fileID: 2100000, guid: 9ebf0b48a39969541b1d6c689f74d113, type: 2}
    - target: {fileID: 919132149155446097, guid: 2a8f1bbd473ce6b48b07360916b6f649,
        type: 3}
      propertyPath: m_Name
      value: baguegravue
      objectReference: {fileID: 0}
    m_RemovedComponents: []
  m_SourcePrefab: {fileID: 100100000, guid: 2a8f1bbd473ce6b48b07360916b6f649, type: 3}
--- !u!4 &5151479648222472550 stripped
Transform:
  m_CorrespondingSourceObject: {fileID: -8679921383154817045, guid: 2a8f1bbd473ce6b48b07360916b6f649,
    type: 3}
  m_PrefabInstance: {fileID: 4681212602150882957}
  m_PrefabAsset: {fileID: 0}
