%YAML 1.1
%TAG !u! tag:unity3d.com,2011:
--- !u!114 &11400000
MonoBehaviour:
  m_ObjectHideFlags: 0
  m_CorrespondingSourceObject: {fileID: 0}
  m_PrefabInstance: {fileID: 0}
  m_PrefabAsset: {fileID: 0}
  m_GameObject: {fileID: 0}
  m_Enabled: 1
  m_EditorHideFlags: 0
  m_Script: {fileID: 11500000, guid: 910da30f54b2e7a46b34e21e81ef3e76, type: 3}
  m_Name: LetterMan
  m_EditorClassIdentifier: 
  prefabLettres:
  - {fileID: 5519141263347979389, guid: a0a8eb52fb59370488d274551cd765d5, type: 3}
  - {fileID: 7155301759942331260, guid: d2e8db4201da7544c8caac37ff42fb7f, type: 3}
  nomsLettres:
  - Cube
  - Cylinder
